{
  "Version" : "2012-10-17",
  "Statement" : [
    {
      "Sid" : "",
      "Effect" : "Allow",
      "Principal" : {
        "Service" : "firehose.amazonaws.com"
      },
      "Action" : "sts:AssumeRole",
      "Condition" : {
        "StringEquals" : {
          "sts:ExternalId":"855262394183"
        }
      }
    }
  ]
}
